	SRR3480371	SRR3480372	SRR3480373	SRR3480374
PRDM15	582	769	566	819
PFKL	3244	3858	3799	4974
HUNK	706	930	1246	1572
COL6A1	4083	4671	2984	4849
IFNAR1	742	1134	1054	1224
SOD1	5217	7120	6693	7671
COL6A2	3224	3689	2538	3936
SIK1	23	36	24	44
TRPM2	2	7	7	7
TMEM50B	440	547	388	458
APP	31385	41825	40426	48162
DOP1B	459	565	574	921
URB1	3472	4483	4353	6334
CXADR	5626	7548	7482	8277
BTG3	677	901	974	1216
C21orf91	1369	1858	1755	2120
CHODL	38	79	146	134
NCAM2	39	51	48	56
MRPL39	1500	2264	2026	2234
JAM2	204	301	130	226
ATP5PF	2901	3926	3179	3528
GABPA	1476	1677	1443	1776
ADAMTS1	935	1207	1756	1982
ADAMTS5	75	112	224	247
HSPA13	2348	3125	4238	4481
SAMSN1	48	74	88	101
USP25	2309	3185	4892	5461
N6AMT1	684	1012	628	929
RWDD2B	339	428	696	830
USP16	1418	1765	1765	2093
CCT8	14624	20140	16794	19049
MAP3K7CL	4	3	4	1
BACH1	1992	2577	2577	2966
TIAM1	1732	2062	1777	2329
SCAF4	2833	3572	2656	3812
VPS26C	2344	3301	2996	3819
DYRK1A	2574	3547	2890	3917
KCNJ6	25	39	46	65
ERG	32	46	14	21
ETS2	1673	1967	2474	2781
LCA5L	18	26	25	32
MX1	151	175	304	345
C2CD2	782	1062	1192	1510
MIS18A	2415	3429	2711	3287
CFAP298	787	1125	953	1160
SYNJ1	247	248	192	262
PAXBP1	3247	4351	3426	4350
IFNAR2	195	288	176	236
IFNGR2	919	1346	1043	1275
GART	9084	12959	10127	12000
SON	16177	22690	17051	22253
DONSON	1076	1481	1313	1568
KCNE2	2	5	1	8
RCAN1	260	319	678	610
CLIC6	43	51	54	89
RUNX1	30	29	59	66
CBR1	3330	4111	2751	3705
CBR3	124	156	81	72
MORC3	1094	1522	1383	1656
CHAF1B	1303	1756	1199	1679
SIM2	2	2	9	12
HLCS	841	1099	1248	1486
ABCG1	198	267	87	147
TFF3	4	9	1	1
TMPRSS3	3	6	13	15
RSPH1	20	12	13	24
SLC37A1	1278	1603	1443	1957
PDE9A	1136	1350	959	1453
WDR4	1277	1614	1859	2608
NDUFV3	1465	1971	1635	2173
PKNOX1	1559	2072	1606	2192
CBS	334	428	385	595
U2AF1	23	127	33	45
HSF2BP	23	21	38	49
RRP1B	6830	8875	7389	9695
PDXK	2860	3518	3782	4941
CSTB	2796	3438	2710	3706
RRP1	2083	2478	2498	3362
AGPAT3	187	256	416	573
TRAPPC10	1363	1809	2160	2937
GATD3A	5	8	5	5
ICOSLG	42	55	90	127
CFAP410	203	221	290	389
LRRC3	328	372	328	476
ITGB2	21	20	6	7
FAM207A	543	621	562	877
FTCD	30	64	45	80
SPATC1L	965	1142	1112	1505
LSS	10046	12015	14709	15189
MCM3AP	5045	6767	5470	7859
C21orf58	564	598	452	730
PCNT	2355	2852	4684	7081
DIP2A	1126	1437	1317	1978
S100B	3	8	8	7
PRMT2	1887	2301	3139	3901
CYYR1	1736	2357	1733	2182
EVA1C	35	36	37	55
GRIK1	4	3	3	3
DSCAM	13	16	37	37
TERF1P1	506	643	375	470
ZBTB21	1084	1582	2294	2613
SLC19A1	1174	1353	1417	2035
TSPEAR	3	4	0	6
RPL23P2	304	506	405	426
DNAJC28	98	127	103	113
NRIP1	1067	1329	1555	1758
GET1	505	713	697	742
BACE2	464	585	883	1102
YBEY	488	596	592	830
TTC3	2497	3069	3677	4547
COL18A1	13527	15923	14140	21163
TSPEAR-AS2	118	134	125	198
PCP4	27	22	44	48
IGSF5	99	132	173	215
RIPPLY3	49	59	67	129
LINC01547	40	49	35	50
PTTG1IP	6588	8389	12346	14429
RIPK4	176	216	208	292
MX2	302	385	227	338
PSMG1	1798	2566	2379	2579
PCBP3	140	175	226	328
B3GALT5	2738	3613	4850	6647
FAM3B	39	39	44	79
TMPRSS2	316	350	552	694
OLIG1	12	6	5	4
AP001062.7	35	39	61	53
UBE2G2	3728	4624	4951	6448
B3GALT5-AS1	880	1200	1480	1783
SUMO3	4278	5568	5259	6362
RBM11	115	204	148	193
SH3BGR	21	10	22	14
BRWD1	3469	3534	4327	5418
PIGP	217	343	303	333
SETD4	1308	1649	2998	4122
POFUT2	1354	1662	2683	3713
KRTAP13-4	1	4	4	6
BAGE2	25	35	43	75
RIMKLBP1	177	196	175	236
ADARB1	587	720	885	1101
PPIAP22	11396	15653	13656	16396
SLC5A3	2440	3317	3203	4009
LTN1	2109	2323	2653	3232
RHOT1P2	28	32	28	35
HMGN1	11423	14904	13928	16245
ITSN1	5295	7138	6968	8683
CRYZL1	406	576	522	657
OLIG2	11	13	19	25
C21orf62-AS1	11	8	5	8
RPL23AP4	22	27	37	48
H2AZP1	2	3	3	3
RPL13AP7	3704	4431	5240	6347
RPS9P1	28	36	30	47
RPL23AP3	82	123	123	129
AP000318.2	2	4	4	5
HSPD1P7	287	413	372	394
THUMPD1P1	24	24	24	36
GPX1P2	146	159	192	240
MCM3AP-AS1	331	417	395	481
RPL10P1	304	427	440	471
MAPK6P2	3	4	6	11
DIP2A-IT1	3	4	1	5
PSMD4P1	32	36	50	48
LINC00205	620	741	704	1080
IL10RB-DT	1	6	4	2
EEF1A1P1	291	371	362	464
MIR548XHG	3	1	7	6
AP001476.2	12	5	2	14
AP000281.1	14	22	15	26
AP000704.5	53	59	66	66
GXYLT1P2	4	4	13	12
AP001347.6	39	42	64	83
AP001628.6	13	24	10	15
RPL8P2	2	6	11	8
AF064860.5	6	16	18	27
AP000320.6	15	17	11	9
MEMO1P1	324	472	541	571
MYL6P1	360	450	657	592
RPL39P40	1	7	7	6
SLC6A6P1	3	2	6	4
ITGB2-AS1	5	1	2	2
MIS18A-AS1	6	4	4	4
LINC00310	8	13	19	21
AP001619.2	1	4	4	10
AP000692.9	4	4	8	4
AP001469.7	16	14	17	16
RPL3P1	784	966	958	1094
SNX19P1	9	8	12	15
D21S2088E	2528	3676	1982	2410
LINC02575	135	192	208	239
BACH1-IT2	3	9	7	13
RPL23AP12	122	187	155	205
MTCO1P3	14	22	14	13
UBE3AP2	120	129	143	144
EXOSC3P1	12	7	9	8
FEM1AP1	1	6	4	6
SREK1IP1P1	30	32	11	31
AJ006998.2	4	6	3	3
IMMTP1	108	172	150	182
AP000221.1	1	7	3	6
AP000688.14	3	7	3	6
FBXW11P1	85	95	109	137
AF129075.5	10	9	3	14
EZH2P1	135	198	164	189
AF064860.7	39	51	61	90
BTF3L4P1	113	131	119	140
MRAP-AS1	4	6	0	3
ERVH48-1	3085	4213	10046	11293
EIF4A1P1	6	0	4	1
AP000688.29	229	380	222	297
LINC01694	94	88	46	87
PPP1R2P2	3	4	5	8
TPT1P1	24	19	34	22
LINC01426	27	42	23	26
KRT18P2	16	12	15	9
MIR155HG	10	16	11	10
AP001626.2	27	21	13	17
SSR4P1	9	21	20	20
AF127936.9	16	46	31	45
PCBP2P1	2	5	5	2
MYL6P2	18	22	27	39
AF064858.8	3	6	3	5
TSPEAR-AS1	96	133	132	185
LINC01424	16	12	16	17
CBR3-AS1	7	14	5	9
ZNF295-AS1	11	13	16	14
AP000251.3	102	85	60	81
LINC00649	323	377	492	624
PAXBP1-AS1	20	31	16	26
ENSG10010138890.1	9	4	5	7
AP001469.9	18	16	18	25
ATP5PO	3174	4219	3868	4339
PWP2	15	21	12	16
IL10RB	3	10	4	7
MRPS6	2634	3428	3246	3711
BACH1-IT1	6	4	22	22
ANKRD20A18P	5	4	5	7
AP000295.9	4	1	4	3
BRWD1-AS2	10	7	4	10
URB1-AS1	20	28	30	25
AP000223.42	3	4	5	8
AP000265.1	5	5	0	5
CFAP298-TCP10L	40	43	35	71
AP001429.1	1	6	0	5
AP001412.1	16	22	9	13
AP000240.9	15	12	9	13
AP000255.6	9	9	10	10
AP000569.9	27	31	28	45
AP000692.10	5	6	2	4
AP001437.1	6	9	12	8
RP1-100J12.1	2	11	2	3
AP000254.8	13	9	12	17
APP-DT	3	2	5	3
LL21NC02-21A1.1	23	20	33	35
KB-68A7.1	9	12	13	10
AJ011932.1	16	19	17	28
CBSL	266	327	374	599
CH507-42P11.1	3	2	2	4
CH507-9B2.5	410	483	409	591
CH507-24F1.2	7	7	10	7
U2AF1L5	70	64	55	80
EIF3FP1	70	132	133	150
SIK1B	39	27	29	43
AP001505.10	110	123	142	235
CH507-9B2.1	12	20	19	24
KB-68A7.2	8	6	9	9
CH507-338C24.1	3	3	2	2
CH507-145C22.1	57	93	91	180
bP-2189O9.2	4	7	4	8
bP-21264C1.2	2	10	3	7
CTBP2P9	12	16	10	27
bP-21264C1.1	12	5	16	25
SNX18P12	5	5	2	10
NCOR1P4	1	3	3	4
CH507-210P18.1	8	4	4	7
GATD3B	49	45	42	68
CH507-154B10.1	56	57	58	75
CH507-9B2.9	106	137	177	187
bP-2171C21.2	89	133	162	211
CH507-528H12.1	0	6	4	2
BTG3-AS1	14	19	26	40
PCBP3-OT1	38	45	19	47
LINC02246	2	6	8	7
AP001436.1	9	6	9	10
